﻿[
	{
		"_id": "co-05",
		"_parentId": "course",
		"_type": "page",
		"_classes": "zh_cn",
		"height":"600",
		"title": "소개",
		"displayTitle": "소개",
		"pageBody": "소비자의 구매 여정을 단계별로 살펴보고 전환을 유도하는 실제 요인을 알아보세요.",
		"body": "이 섹션에서는 사람 기반 멀티터치 기여 모델(Multi-touch Attribution)의 이점과 본 과정의 학습 목표, 그리고 '행동 기여' 동영상을 살펴봅니다.",
		"_graphic": {
			"src": "course/en/images/co_1.jpg",
			"alt": "소개"
		},
		"linkText": "보기",
		"durationLabel": "소요 시간:",
		"duration": "5분",
		"_pageLevelProgress": {
			"_isEnabled": true
		}
	},
	{
		"_id": "co-10",
		"_parentId": "course",
		"_type": "page",
		"_classes": "zh_cn",
		"height":"600",
		"title": "'기여'란?",
		"displayTitle": "'기여'란?",
		"pageBody": "비즈니스에 최고의 가치를 더해주는 광고와 채널에 대해 알아보세요.",
		"body": "이 섹션에서는 기여의 정의, 기여가 중요한 이유, 최종 클릭 기반 모델의 한계점 및 사람 기반 측정의 장점에 대해 알아봅니다.",
		"_graphic": {
			"src": "course/en/images/co_2.jpg",
			"alt": "동영상 관리"
		},
		"linkText": "보기",
		"durationLabel": "소요 시간:",
		"duration": "2분",
		"_pageLevelProgress": {
			"_isEnabled": true
		}
	},
	{
		"_id": "co-15",
		"_parentId": "course",
		"_type": "page",
		"_classes": "zh_cn",
		"height":"600",
		"title": "기여 모델",
		"displayTitle": "기여 모델",
		"pageBody": "기여 모델은 전환으로 이어지는 과정 전반에 걸쳐 광고 접점(ad touchpoints)에 적절한 크레딧을 부여하는 방식을 결정합니다.",
		"body": "이 섹션에서는 자주 사용되는 규칙 기반 모델과 통계적 모델 몇 가지에 대해 자세히 살펴봅니다.",
		"_graphic": {
			"src": "course/en/images/co_3.jpg",
			"alt": "할당 및 트래픽"
		},
		"linkText": "보기",
		"durationLabel": "소요 시간:",
		"duration": "7분",
		"_pageLevelProgress": {
			"_isEnabled": true
		}
	},
	{
		"_id": "co-20",
		"_parentId": "course",
		"_type": "page",
		"_classes": "zh_cn",
		"height":"600",
		"title": "데이터 소스",
		"displayTitle": "데이터 소스",
		"pageBody": "입력 데이터와 결과 데이터, 즉 기여와 전환으로 간주되는 두 가지 데이터 유형은 정확한 멀티터치 기여 모델을 파악하기 위한 필수 요소입니다.",
		"body": "이 섹션에서는 기여를 좀 더 정확하게 파악하는 데 필요한 주요 데이터 소스 유형인 입력 데이터(조회, 클릭, 비용)와 결과 데이터(구매 및 기타 전환 유형)에 대해 알아봅니다.",
		"_graphic": {
			"src": "course/en/images/co_4a.jpg",
			"alt": "동영상 참여"
		},
		"linkText": "보기",
		"durationLabel": "소요 시간:",
		"duration": "4분",
		"_pageLevelProgress": {
			"_isEnabled": true
		}
	},
	{
		"_id": "co-25",
		"_parentId": "course",
		"_type": "page",
		"_classes": "zh_cn",
		"height":"600",
		"title": "도전 과제",
		"displayTitle": "도전 과제",
		"pageBody": "멀티터치 기여가 더 효과적인 인사이트를 제공한다면, 지금까지 기여의 표준이 될 수 없었던 이유는 무엇인가요?",
		"body": "이 섹션에서는 다양한 기기가 사용되는 모바일 중심 환경이 기여에 미치는 영향을 살펴보고, 새로운 기여 표준을 사용하는 데 따르는 어려움에 대해 알아보겠습니다.",
		"_graphic": {
			"src": "course/en/images/co_4.jpg",
			"alt": "동영상 참여"
		},
		"linkText": "보기",
		"durationLabel": "소요 시간:",
		"duration": "3분",
		"_pageLevelProgress": {
			"_isEnabled": true
		}
	},
	{
		"_id": "co-30",
		"_parentId": "course",
		"_type": "page",
		"_classes": "zh_cn",
		"height":"600",
		"title": " 기여 솔루션",
		"displayTitle": "기여 솔루션",
		"pageBody": "지금까지 멀티터치 기여의 정의와 가치에 대해 알아보았습니다. 이제 적절한 마케팅 접점에 전환 가치를 부여하기 위한 몇 가지 솔루션을 살펴보겠습니다.",
		"body": "이 섹션에서는 Facebook이 제공하는 사람 기반의 기여 솔루션 몇 가지에 대해 알아보겠습니다.",
		"_graphic": {
			"src": "course/en/images/co_5.jpg",
			"alt": "동영상 참여"
		},
		"linkText": "보기",
		"durationLabel": "소요 시간:",
		"duration": "4분",
		"_pageLevelProgress": {
			"_isEnabled": true
		}
	},
	{
		"_id": "co-35",
		"_parentId": "course",
		"_type": "page",
		"_classes": "zh_cn",
		"height":"600",
		"title": "인사이트 활용하기",
		"displayTitle": "인사이트 활용하기",
		"pageBody": "활용 가능한 데이터: 크레딧 부여에서 미디어 최적화로",
		"body": "전환 경로 데이터를 사용하여 실질적인 성과를 가져다주는 광고, 퍼블리셔와 채널을 파악함으로써 미디어 예산을 효과적인 곳에 투입합니다.",
		"_graphic": {
			"src": "course/en/images/co_6.jpg",
			"alt": "동영상 참여"
		},
		"linkText": "보기",
		"durationLabel": "소요 시간:",
		"duration": "4분",
		"_pageLevelProgress": {
			"_isEnabled": true
		}
    },
	{
		"_id": "co-40",
		"_parentId": "course",
		"_type": "page",
		"_classes": "zh_cn",
		"height":"600",
		"title": "요약",
		"displayTitle": "요약",
		"pageBody": "Facebook의 사람 기반 도구를 사용하면 광고가 Facebook 외 기타 자산에도 가치를 제공하고 있는지 명확하게 확인할 수 있습니다.",
		"body": "이 섹션에서는 본 과정에서 학습한 내용을 요약하고 자주 묻는 질문에 대한 답변을 제공합니다.",
		"_graphic": {
			"src": "course/en/images/co_8.jpg",
			"alt": "동영상 참여"
		},
		"linkText": "보기",
		"durationLabel": "소요 시간:",
		"duration": "2분",
		"_pageLevelProgress": {
			"_isEnabled": true
		}
	}

]
